{
    "features": [
        {
            "geometry": {
                "coordinates": [
                    3.00195,
                    48.83305
                ],
                "type": "Point"
            },
            "properties": {
                "infos": {
                    "airport_frequency": "",
                    "code": "AACMHgar",
                    "country": "FR",
                    "description": "Hangar AACM",
                    "elevation": "141m",
                    "latitude": 48.83305,
                    "longitude": 3.00195,
                    "name": "AACM Hangar",
                    "runway_direction": "",
                    "runway_length": "",
                    "style": "1"
                },
                "name": "AACM Hangar",
                "options": {
                    "A1": "180",
                    "Line": "1",
                    "ObsZone": "0",
                    "R1": "1000m",
                    "Style": "2"
                }
            },
            "type": "Feature"
        },
        {
            "geometry": {
                "coordinates": [
                    [
                        3.00195,
                        48.83305
                    ],
                    [
                        3.7641666666666667,
                        48.71055
                    ]
                ],
                "type": "LineString"
            },
            "properties": {
                "name": "57,66 km (283\u00b0)"
            },
            "type": "Feature"
        },
        {
            "geometry": {
                "coordinates": [
                    3.7641666666666667,
                    48.71055
                ],
                "type": "Point"
            },
            "properties": {
                "infos": {
                    "airport_frequency": "",
                    "code": "",
                    "country": "FR",
                    "description": "",
                    "elevation": "108.5m",
                    "latitude": 48.71055,
                    "longitude": 3.7641666666666667,
                    "name": "SEZANNE",
                    "runway_direction": "",
                    "runway_length": "",
                    "style": "1"
                },
                "name": "SEZANNE",
                "options": {
                    "A1": "45",
                    "ObsZone": "1",
                    "R1": "3000m",
                    "Style": "1"
                }
            },
            "type": "Feature"
        },
        {
            "geometry": {
                "coordinates": [
                    [
                        3.7641666666666667,
                        48.71055
                    ],
                    [
                        5.404166666666667,
                        50.035833333333336
                    ]
                ],
                "type": "LineString"
            },
            "properties": {
                "name": "189,49 km (218\u00b0)"
            },
            "type": "Feature"
        },
        {
            "geometry": {
                "coordinates": [
                    5.404166666666667,
                    50.035833333333336
                ],
                "type": "Point"
            },
            "properties": {
                "infos": {
                    "airport_frequency": "",
                    "code": "",
                    "country": "BE",
                    "description": "",
                    "elevation": "563.3m",
                    "latitude": 50.035833333333336,
                    "longitude": 5.404166666666667,
                    "name": "ST HUBER",
                    "runway_direction": "",
                    "runway_length": "",
                    "style": "1"
                },
                "name": "ST HUBER",
                "options": {
                    "A1": "45",
                    "ObsZone": "2",
                    "R1": "3000m",
                    "Style": "1"
                }
            },
            "type": "Feature"
        },
        {
            "geometry": {
                "coordinates": [
                    [
                        5.404166666666667,
                        50.035833333333336
                    ],
                    [
                        3.7616666666666667,
                        48.49945
                    ]
                ],
                "type": "LineString"
            },
            "properties": {
                "name": "208,52 km (36\u00b0)"
            },
            "type": "Feature"
        },
        {
            "geometry": {
                "coordinates": [
                    3.7616666666666667,
                    48.49945
                ],
                "type": "Point"
            },
            "properties": {
                "infos": {
                    "airport_frequency": "",
                    "code": "",
                    "country": "FR",
                    "description": "Aerodrome Piste herbe",
                    "elevation": "82.0mm",
                    "latitude": 48.49945,
                    "longitude": 3.7616666666666667,
                    "name": "Romilly Sur Sein",
                    "runway_direction": "70",
                    "runway_length": "590.0mm",
                    "style": "2"
                },
                "name": "Romilly Sur Sein",
                "options": {
                    "A1": "45",
                    "ObsZone": "3",
                    "R1": "3000m",
                    "Style": "1"
                }
            },
            "type": "Feature"
        },
        {
            "geometry": {
                "coordinates": [
                    [
                        3.7616666666666667,
                        48.49945
                    ],
                    [
                        3.00195,
                        48.83305
                    ]
                ],
                "type": "LineString"
            },
            "properties": {
                "name": "67,14 km (124\u00b0)"
            },
            "type": "Feature"
        },
        {
            "geometry": {
                "coordinates": [
                    3.00195,
                    48.83305
                ],
                "type": "Point"
            },
            "properties": {
                "infos": {
                    "airport_frequency": "",
                    "code": "AACMHgar",
                    "country": "FR",
                    "description": "Hangar AACM",
                    "elevation": "141m",
                    "latitude": 48.83305,
                    "longitude": 3.00195,
                    "name": "AACM Hangar",
                    "runway_direction": "",
                    "runway_length": "",
                    "style": "1"
                },
                "name": "AACM Hangar",
                "options": {
                    "A1": "180",
                    "Line": "1",
                    "ObsZone": "4",
                    "R1": "1000m",
                    "Style": "3"
                }
            },
            "type": "Feature"
        }
    ],
    "type": "FeatureCollection"
}