{
    "features": [
        {
            "geometry": {
                "coordinates": [
                    3.0091,
                    48.82621666666667
                ],
                "type": "Point"
            },
            "properties": {
                "infos": {
                    "airport_frequency": "",
                    "code": "CLMEQ",
                    "country": "FR",
                    "description": "Centre equestre Sud LFPK",
                    "elevation": "140m",
                    "latitude": 48.82621666666667,
                    "longitude": 3.0091,
                    "name": "CLM-Equestre",
                    "runway_direction": "",
                    "runway_length": "",
                    "style": "1"
                },
                "name": "CLM-Equestre",
                "options": {
                    "A1": "180",
                    "Line": "1",
                    "ObsZone": "0",
                    "R1": "1000m",
                    "Style": "2"
                }
            },
            "type": "Feature"
        },
        {
            "geometry": {
                "coordinates": [
                    [
                        3.0091,
                        48.82621666666667
                    ],
                    [
                        3.033316666666667,
                        48.71525
                    ]
                ],
                "type": "LineString"
            },
            "properties": {
                "name": "12,47 km (352\u00b0)"
            },
            "type": "Feature"
        },
        {
            "geometry": {
                "coordinates": [
                    3.033316666666667,
                    48.71525
                ],
                "type": "Point"
            },
            "properties": {
                "infos": {
                    "airport_frequency": "",
                    "code": "PLESSIS",
                    "country": "FR",
                    "description": "Eglise",
                    "elevation": "115m",
                    "latitude": 48.71525,
                    "longitude": 3.033316666666667,
                    "name": "Plessis Feu Aussoux",
                    "runway_direction": "",
                    "runway_length": "",
                    "style": "16"
                },
                "name": "Plessis Feu Aussoux",
                "options": {
                    "A1": "45",
                    "ObsZone": "1",
                    "R1": "3000m",
                    "Style": "1"
                }
            },
            "type": "Feature"
        },
        {
            "geometry": {
                "coordinates": [
                    [
                        3.033316666666667,
                        48.71525
                    ],
                    [
                        2.9904,
                        48.87071666666667
                    ]
                ],
                "type": "LineString"
            },
            "properties": {
                "name": "17,57 km (170\u00b0)"
            },
            "type": "Feature"
        },
        {
            "geometry": {
                "coordinates": [
                    2.9904,
                    48.87071666666667
                ],
                "type": "Point"
            },
            "properties": {
                "infos": {
                    "airport_frequency": "",
                    "code": "MAICELL",
                    "country": "FR",
                    "description": "Intersection D15 D228",
                    "elevation": "150m",
                    "latitude": 48.87071666666667,
                    "longitude": 2.9904,
                    "name": "Maisoncelles N",
                    "runway_direction": "",
                    "runway_length": "",
                    "style": "17"
                },
                "name": "Maisoncelles N",
                "options": {
                    "A1": "45",
                    "ObsZone": "2",
                    "R1": "3000m",
                    "Style": "1"
                }
            },
            "type": "Feature"
        },
        {
            "geometry": {
                "coordinates": [
                    [
                        2.9904,
                        48.87071666666667
                    ],
                    [
                        3.0091,
                        48.82621666666667
                    ]
                ],
                "type": "LineString"
            },
            "properties": {
                "name": "5,14 km (345\u00b0)"
            },
            "type": "Feature"
        },
        {
            "geometry": {
                "coordinates": [
                    3.0091,
                    48.82621666666667
                ],
                "type": "Point"
            },
            "properties": {
                "infos": {
                    "airport_frequency": "",
                    "code": "CLMEQ",
                    "country": "FR",
                    "description": "Centre equestre Sud LFPK",
                    "elevation": "140m",
                    "latitude": 48.82621666666667,
                    "longitude": 3.0091,
                    "name": "CLM-Equestre",
                    "runway_direction": "",
                    "runway_length": "",
                    "style": "1"
                },
                "name": "CLM-Equestre",
                "options": {
                    "A1": "180",
                    "Line": "1",
                    "ObsZone": "3",
                    "R1": "1000m",
                    "Style": "3"
                }
            },
            "type": "Feature"
        }
    ],
    "type": "FeatureCollection"
}