{
    "features": [
        {
            "geometry": {
                "coordinates": [
                    3.0046666666666666,
                    48.833616666666664
                ],
                "type": "Point"
            },
            "properties": {
                "infos": {
                    "airport_frequency": "",
                    "code": "",
                    "country": "FR",
                    "description": "",
                    "elevation": "143.6m",
                    "latitude": 48.833616666666664,
                    "longitude": 3.0046666666666666,
                    "name": "COULOM H",
                    "runway_direction": "",
                    "runway_length": "",
                    "style": "1"
                },
                "name": "COULOM H",
                "options": {
                    "A1": "180",
                    "Line": "1",
                    "ObsZone": "0",
                    "R1": "1000m",
                    "Style": "2"
                }
            },
            "type": "Feature"
        },
        {
            "geometry": {
                "coordinates": [
                    [
                        3.0046666666666666,
                        48.833616666666664
                    ],
                    [
                        2.0413833333333335,
                        46.888616666666664
                    ]
                ],
                "type": "LineString"
            },
            "properties": {
                "name": "227,95 km (19\u00b0)"
            },
            "type": "Feature"
        },
        {
            "geometry": {
                "coordinates": [
                    2.0413833333333335,
                    46.888616666666664
                ],
                "type": "Point"
            },
            "properties": {
                "infos": {
                    "airport_frequency": "",
                    "code": "",
                    "country": "FR",
                    "description": "",
                    "elevation": "162.5m",
                    "latitude": 46.888616666666664,
                    "longitude": 2.0413833333333335,
                    "name": "ISSOUDUN",
                    "runway_direction": "",
                    "runway_length": "",
                    "style": "1"
                },
                "name": "ISSOUDUN",
                "options": {
                    "A1": "45",
                    "ObsZone": "1",
                    "R1": "3000m",
                    "Style": "1"
                }
            },
            "type": "Feature"
        },
        {
            "geometry": {
                "coordinates": [
                    [
                        2.0413833333333335,
                        46.888616666666664
                    ],
                    [
                        3.0046666666666666,
                        48.833616666666664
                    ]
                ],
                "type": "LineString"
            },
            "properties": {
                "name": "227,95 km (198\u00b0)"
            },
            "type": "Feature"
        },
        {
            "geometry": {
                "coordinates": [
                    3.0046666666666666,
                    48.833616666666664
                ],
                "type": "Point"
            },
            "properties": {
                "infos": {
                    "airport_frequency": "",
                    "code": "",
                    "country": "FR",
                    "description": "",
                    "elevation": "143.6m",
                    "latitude": 48.833616666666664,
                    "longitude": 3.0046666666666666,
                    "name": "COULOM H",
                    "runway_direction": "",
                    "runway_length": "",
                    "style": "1"
                },
                "name": "COULOM H",
                "options": {
                    "A1": "180",
                    "Line": "1",
                    "ObsZone": "2",
                    "R1": "1000m",
                    "Style": "3"
                }
            },
            "type": "Feature"
        }
    ],
    "type": "FeatureCollection"
}