{
    "features": [
        {
            "geometry": {
                "coordinates": [
                    3.0046666666666666,
                    48.833616666666664
                ],
                "type": "Point"
            },
            "properties": {
                "infos": {
                    "airport_frequency": "",
                    "code": "",
                    "country": "FR",
                    "description": "",
                    "elevation": "143.6m",
                    "latitude": 48.833616666666664,
                    "longitude": 3.0046666666666666,
                    "name": "COULOM H",
                    "runway_direction": "",
                    "runway_length": "",
                    "style": "1"
                },
                "name": "COULOM H",
                "options": {
                    "A1": "180",
                    "Line": "1",
                    "ObsZone": "0",
                    "R1": "1000m",
                    "Style": "2"
                }
            },
            "type": "Feature"
        },
        {
            "geometry": {
                "coordinates": [
                    [
                        3.0046666666666666,
                        48.833616666666664
                    ],
                    [
                        3.2508333333333335,
                        48.29055
                    ]
                ],
                "type": "LineString"
            },
            "properties": {
                "name": "63,06 km (343\u00b0)"
            },
            "type": "Feature"
        },
        {
            "geometry": {
                "coordinates": [
                    3.2508333333333335,
                    48.29055
                ],
                "type": "Point"
            },
            "properties": {
                "infos": {
                    "airport_frequency": "",
                    "code": "",
                    "country": "FR",
                    "description": "",
                    "elevation": "72.5m",
                    "latitude": 48.29055,
                    "longitude": 3.2508333333333335,
                    "name": "PONT-SUR",
                    "runway_direction": "",
                    "runway_length": "",
                    "style": "1"
                },
                "name": "PONT-SUR",
                "options": {
                    "A1": "45",
                    "ObsZone": "1",
                    "R1": "3000m",
                    "Style": "1"
                }
            },
            "type": "Feature"
        },
        {
            "geometry": {
                "coordinates": [
                    [
                        3.2508333333333335,
                        48.29055
                    ],
                    [
                        4.085,
                        49.00528333333333
                    ]
                ],
                "type": "LineString"
            },
            "properties": {
                "name": "100,47 km (217\u00b0)"
            },
            "type": "Feature"
        },
        {
            "geometry": {
                "coordinates": [
                    4.085,
                    49.00528333333333
                ],
                "type": "Point"
            },
            "properties": {
                "infos": {
                    "airport_frequency": "",
                    "code": "",
                    "country": "FR",
                    "description": "",
                    "elevation": "88.4m",
                    "latitude": 49.00528333333333,
                    "longitude": 4.085,
                    "name": "EPERNAY",
                    "runway_direction": "",
                    "runway_length": "",
                    "style": "1"
                },
                "name": "EPERNAY",
                "options": {
                    "A1": "45",
                    "ObsZone": "2",
                    "R1": "3000m",
                    "Style": "1"
                }
            },
            "type": "Feature"
        },
        {
            "geometry": {
                "coordinates": [
                    [
                        4.085,
                        49.00528333333333
                    ],
                    [
                        3.0046666666666666,
                        48.833616666666664
                    ]
                ],
                "type": "LineString"
            },
            "properties": {
                "name": "81,45 km (77\u00b0)"
            },
            "type": "Feature"
        },
        {
            "geometry": {
                "coordinates": [
                    3.0046666666666666,
                    48.833616666666664
                ],
                "type": "Point"
            },
            "properties": {
                "infos": {
                    "airport_frequency": "",
                    "code": "",
                    "country": "FR",
                    "description": "",
                    "elevation": "143.6m",
                    "latitude": 48.833616666666664,
                    "longitude": 3.0046666666666666,
                    "name": "COULOM H",
                    "runway_direction": "",
                    "runway_length": "",
                    "style": "1"
                },
                "name": "COULOM H",
                "options": {
                    "A1": "180",
                    "Line": "1",
                    "ObsZone": "3",
                    "R1": "1000m",
                    "Style": "3"
                }
            },
            "type": "Feature"
        }
    ],
    "type": "FeatureCollection"
}