{
    "features": [
        {
            "geometry": {
                "coordinates": [
                    3.0046666666666666,
                    48.833616666666664
                ],
                "type": "Point"
            },
            "properties": {
                "infos": {
                    "airport_frequency": "",
                    "code": "",
                    "country": "FR",
                    "description": "",
                    "elevation": "143.6m",
                    "latitude": 48.833616666666664,
                    "longitude": 3.0046666666666666,
                    "name": "COULOM H",
                    "runway_direction": "",
                    "runway_length": "",
                    "style": "1"
                },
                "name": "COULOM H",
                "options": {
                    "A1": "180",
                    "Line": "1",
                    "ObsZone": "0",
                    "R1": "1000m",
                    "Style": "2"
                }
            },
            "type": "Feature"
        },
        {
            "geometry": {
                "coordinates": [
                    [
                        3.0046666666666666,
                        48.833616666666664
                    ],
                    [
                        2.7426333333333335,
                        47.9836
                    ]
                ],
                "type": "LineString"
            },
            "properties": {
                "name": "96,49 km (12\u00b0)"
            },
            "type": "Feature"
        },
        {
            "geometry": {
                "coordinates": [
                    2.7426333333333335,
                    47.9836
                ],
                "type": "Point"
            },
            "properties": {
                "infos": {
                    "airport_frequency": "",
                    "code": "",
                    "country": "FR",
                    "description": "Echangeur sur Yonne",
                    "elevation": "90m",
                    "latitude": 47.9836,
                    "longitude": 2.7426333333333335,
                    "name": "MONTARGI",
                    "runway_direction": "",
                    "runway_length": "",
                    "style": "1"
                },
                "name": "MONTARGI",
                "options": {
                    "A1": "45",
                    "ObsZone": "1",
                    "R1": "3000m",
                    "Style": "1"
                }
            },
            "type": "Feature"
        },
        {
            "geometry": {
                "coordinates": [
                    [
                        2.7426333333333335,
                        47.9836
                    ],
                    [
                        4.413616666666667,
                        48.06695
                    ]
                ],
                "type": "LineString"
            },
            "properties": {
                "name": "124,98 km (265\u00b0)"
            },
            "type": "Feature"
        },
        {
            "geometry": {
                "coordinates": [
                    4.413616666666667,
                    48.06695
                ],
                "type": "Point"
            },
            "properties": {
                "infos": {
                    "airport_frequency": "",
                    "code": "",
                    "country": "FR",
                    "description": "",
                    "elevation": "286.5m",
                    "latitude": 48.06695,
                    "longitude": 4.413616666666667,
                    "name": "BAR SUR",
                    "runway_direction": "",
                    "runway_length": "",
                    "style": "1"
                },
                "name": "BAR SUR",
                "options": {
                    "A1": "45",
                    "ObsZone": "2",
                    "R1": "3000m",
                    "Style": "1"
                }
            },
            "type": "Feature"
        },
        {
            "geometry": {
                "coordinates": [
                    [
                        4.413616666666667,
                        48.06695
                    ],
                    [
                        3.0046666666666666,
                        48.833616666666664
                    ]
                ],
                "type": "LineString"
            },
            "properties": {
                "name": "134,65 km (130\u00b0)"
            },
            "type": "Feature"
        },
        {
            "geometry": {
                "coordinates": [
                    3.0046666666666666,
                    48.833616666666664
                ],
                "type": "Point"
            },
            "properties": {
                "infos": {
                    "airport_frequency": "",
                    "code": "",
                    "country": "FR",
                    "description": "",
                    "elevation": "143.6m",
                    "latitude": 48.833616666666664,
                    "longitude": 3.0046666666666666,
                    "name": "COULOM H",
                    "runway_direction": "",
                    "runway_length": "",
                    "style": "1"
                },
                "name": "COULOM H",
                "options": {
                    "A1": "180",
                    "Line": "1",
                    "ObsZone": "3",
                    "R1": "1000m",
                    "Style": "3"
                }
            },
            "type": "Feature"
        }
    ],
    "type": "FeatureCollection"
}