{
    "features": [
        {
            "geometry": {
                "coordinates": [
                    3.0046666666666666,
                    48.833616666666664
                ],
                "type": "Point"
            },
            "properties": {
                "infos": {
                    "airport_frequency": "",
                    "code": "",
                    "country": "FR",
                    "description": "",
                    "elevation": "143.6m",
                    "latitude": 48.833616666666664,
                    "longitude": 3.0046666666666666,
                    "name": "COULOM H",
                    "runway_direction": "",
                    "runway_length": "",
                    "style": "1"
                },
                "name": "COULOM H",
                "options": {
                    "A1": "180",
                    "Line": "1",
                    "ObsZone": "0",
                    "R1": "1000m",
                    "Style": "2"
                }
            },
            "type": "Feature"
        },
        {
            "geometry": {
                "coordinates": [
                    [
                        3.0046666666666666,
                        48.833616666666664
                    ],
                    [
                        1.6881666666666666,
                        47.320766666666664
                    ]
                ],
                "type": "LineString"
            },
            "properties": {
                "name": "194,72 km (31\u00b0)"
            },
            "type": "Feature"
        },
        {
            "geometry": {
                "coordinates": [
                    1.6881666666666666,
                    47.320766666666664
                ],
                "type": "Point"
            },
            "properties": {
                "infos": {
                    "airport_frequency": "",
                    "code": "",
                    "country": "FR",
                    "description": "",
                    "elevation": "88.4m",
                    "latitude": 47.320766666666664,
                    "longitude": 1.6881666666666666,
                    "name": "ROMORANT",
                    "runway_direction": "",
                    "runway_length": "",
                    "style": "1"
                },
                "name": "ROMORANT",
                "options": {
                    "A1": "45",
                    "ObsZone": "1",
                    "R1": "3000m",
                    "Style": "1"
                }
            },
            "type": "Feature"
        },
        {
            "geometry": {
                "coordinates": [
                    [
                        1.6881666666666666,
                        47.320766666666664
                    ],
                    [
                        4.58055,
                        47.846383333333335
                    ]
                ],
                "type": "LineString"
            },
            "properties": {
                "name": "225,27 km (254\u00b0)"
            },
            "type": "Feature"
        },
        {
            "geometry": {
                "coordinates": [
                    4.58055,
                    47.846383333333335
                ],
                "type": "Point"
            },
            "properties": {
                "infos": {
                    "airport_frequency": "",
                    "code": "",
                    "country": "FR",
                    "description": "",
                    "elevation": "276.5m",
                    "latitude": 47.846383333333335,
                    "longitude": 4.58055,
                    "name": "CHATILLO",
                    "runway_direction": "",
                    "runway_length": "",
                    "style": "1"
                },
                "name": "CHATILLO",
                "options": {
                    "A1": "45",
                    "ObsZone": "2",
                    "R1": "3000m",
                    "Style": "1"
                }
            },
            "type": "Feature"
        },
        {
            "geometry": {
                "coordinates": [
                    [
                        4.58055,
                        47.846383333333335
                    ],
                    [
                        3.0046666666666666,
                        48.833616666666664
                    ]
                ],
                "type": "LineString"
            },
            "properties": {
                "name": "160,3 km (134\u00b0)"
            },
            "type": "Feature"
        },
        {
            "geometry": {
                "coordinates": [
                    3.0046666666666666,
                    48.833616666666664
                ],
                "type": "Point"
            },
            "properties": {
                "infos": {
                    "airport_frequency": "",
                    "code": "",
                    "country": "FR",
                    "description": "",
                    "elevation": "143.6m",
                    "latitude": 48.833616666666664,
                    "longitude": 3.0046666666666666,
                    "name": "COULOM H",
                    "runway_direction": "",
                    "runway_length": "",
                    "style": "1"
                },
                "name": "COULOM H",
                "options": {
                    "A1": "180",
                    "Line": "1",
                    "ObsZone": "3",
                    "R1": "1000m",
                    "Style": "3"
                }
            },
            "type": "Feature"
        }
    ],
    "type": "FeatureCollection"
}