{
    "type": "FeatureCollection",
    "features": [
	{
            "type": "Feature",
	    "properties": {
		"name": "TMA PARIS partie 9 / 9.1 (FL85)",
		"color": "indigo"
	    },
	    "geometry": {
		"type": "MultiLineString",
		"coordinates": [
		    [[1.403889,49.836389],[1.536111,49.751667],[1.723889,49.630833],[1.665833,49.536944],[2.5,49.433333],[2.602778,49.471389],[2.708889,49.510556],[2.743889,49.635278],[2.782778,49.674167],[2.976389,49.6025],[3.105833,49.611944],[3.236389,49.666667],[3.660278,49.748333],[3.933333,49.8],[4.250833,49.505278],[3.8825,49.256667],[3.661667,49.105833],[3.656944,48.736667],[3.656389,48.700556],[3.73,48.683889],[3.781667,48.672222],[3.853056,48.639444],[3.915556,48.543889],[4.080833,48.455278],[3.794722,48.099722],[3.283889,47.890556],[3.053889,48.101389],[2.906667,48.273611],[1.897222,48.297222],[1.752778,48.090833],[1.726944,48.06],[1.709167,48.049444],[1.594722,48.015],[1.505278,48.008889],[1.439444,47.904444],[1.027222,47.848333],[0.740833,47.933333],[0.609167,48.268333],[0.755833,48.408611],[1.159444,48.547222],[1.207778,48.598611],[1.286111,48.657222],[1.425278,48.705833],[1.419167,48.917222],[1.495278,49.101111],[1.488611,49.138611],[1.316667,49.166667],[0.9125,49.231389],[1.255556,49.834444],[1.403889,49.836389]],
		    [[4.250833,49.505278],[4.393889,49.36],[4.1725,49.248611],[3.8825,49.256667],[4.250833,49.505278]]
		]
	    }
	},
	{
            "type": "Feature",
	    "properties": {
		"name": "TMA PARIS partie 7 (FL65)",
		"color": "MediumPurple"
	    },
	    "geometry": {
		"type": "LineString",
		"coordinates": [[1.4,49.75],[1.536111,49.751667],[1.723889,49.630833],[1.665833,49.536944],[2.5,49.433333],[2.602778,49.471389],[2.708889,49.510556],[2.743889,49.635278],[2.782778,49.674167],[2.976389,49.6025],[3.105833,49.611944],[3.236389,49.666667],[3.484722,49.714722],[3.660278,49.748333],[3.765556,49.556111],[3.8825,49.256667],[3.661667,49.105833],[3.656944,48.736667],[3.656389,48.700556],[3.73,48.683889],[3.781667,48.672222],[3.853056,48.639444],[3.915556,48.543889],[3.780556,48.406111],[3.240556,48.089167],[3.053889,48.101389],[2.906667,48.273611],[1.897222,48.297222],[1.752778,48.090833],[1.726944,48.06],[1.709167,48.049444],[1.594722,48.015],[1.505278,48.008889],[1.403056,48.001667],[1.205556,48.083611],[1.159444,48.547222],[1.207778,48.598611],[1.286111,48.657222],[1.425278,48.705833],[1.419167,48.917222],[1.495278,49.101111],[1.488611,49.138611],[1.316667,49.166667],[1.233333,49.233333],[1.283333,49.566667],[1.4,49.75]]
	    }
	},
	{
            "type": "Feature",
	    "properties": {
		"name": "FL55",
		"color": "DodgerBlue"
	    },
	    "geometry": {
		"type": "LineString",
		"coordinates": [[3.020278,48.491111],[2.994722,48.556111],[2.976111,48.603333],[3.091389,48.686667],[3.084444,48.699167],[3.193611,48.776389],[3.224722,48.750833],[3.504444,48.758333],[3.500833,48.809722],[3.658333,48.82],[3.656944,48.736667],[3.509167,48.698889],[3.158611,48.608056],[3.020278,48.491111]]
	    }
	},
	{
            "type": "Feature",
	    "properties": {
		"name": "4500ft AMSL",
		"color": "yellow"
	    },
	    "geometry": {
		"type": "LineString",
		"coordinates": [[2.708889,49.510556],[3.157778,49.4375],[3.314722,49.468611],[3.461667,49.445],[3.662222,49.140556],[3.661667,49.105833],[3.658333,48.82],[3.500833,48.809722],[3.504444,48.758333],[3.224722,48.750833],[3.193611,48.776389],[3.084444,48.699167],[3.091389,48.686667],[2.976111,48.603333],[2.994722,48.556111],[3.020278,48.491111],[2.885,48.376667],[2.747222,48.377222],[1.871944,48.3775],[1.753889,48.376944],[1.552222,48.498333],[1.576111,48.606667],[1.425278,48.705833],[1.419167,48.917222],[1.495278,49.101111],[1.488611,49.138611],[1.468056,49.2525],[1.570556,49.3],[1.613056,49.380278],[1.723056,49.375278],[1.8525,49.41],[1.941111,49.433889],[2.2425,49.340556],[2.5,49.433333],[2.602778,49.471389],[2.708889,49.510556]]
	    }
	},
	{
            "type": "Feature",
	    "properties": {
		"name": "3500ft AMSL",
		"color": "orange"
	    },
	    "geometry": {
		"type": "LineString",
		"coordinates": [[2.708889,49.510556],[3.157778,49.4375],[3.164722,49.383333],[3.373056,49.316667],[3.483333,49.033333],[3.500833,48.809722],[3.066667,48.797778],[2.938611,48.698333],[2.976111,48.603333],[2.994722,48.556111],[2.813333,48.455833],[2.747222,48.377222],[1.871944,48.3775],[1.676111,48.546667],[1.576111,48.606667],[1.425278,48.705833],[1.606111,49.059722],[1.723056,49.375278],[1.8525,49.41],[1.899167,49.389444],[2.055833,49.32],[2.165833,49.3125],[2.2425,49.340556],[2.5,49.433333],[2.602778,49.471389],[2.708889,49.510556]]
	    }
	},
	{
	    "type": "Feature",
	    "properties": {
		"name": "2500ft AMSL",
		"color": "HotPink"
	    },
	    "geometry": {
		"type": "LineString",
		"coordinates": [[2.708889,49.510556],[3.157778,49.4375],[3.164722,49.383333],[3.238889,48.848333],[3.093056,48.845833],[2.990556,48.875278],[2.978611,48.878611],[2.9025,48.863333],[2.899444,48.833056],[2.958056,48.735556],[2.911667,48.647222],[2.847222,48.522222],[2.685278,48.483333],[2.489167,48.505],[2.395833,48.406389],[1.885278,48.429444],[1.676111,48.546667],[1.695833,48.621667],[1.739444,48.7875],[1.768889,48.899167],[1.742222,49.021111],[1.777778,49.104167],[1.899167,49.389444],[2.055833,49.32],[2.165833,49.3125],[2.2425,49.340556],[2.5,49.433333],[2.602778,49.471389],[2.708889,49.510556]]
	    }
	},
	{
	    "type": "Feature",
	    "properties": {
		"name": "TMA PARIS partie 10 (2000ft AMSL)",
		"color": "DeepPink"
	    },
	    "geometry": {
		"type": "LineString",
		"coordinates": [[1.9866666666666668,48.79861111111111],[1.9869444444444444,48.795833333333334],[1.988888888888889,48.75416666666667],[1.9941666666666666,48.653888888888886],[1.9991666666666668,48.63333333333333],[1.7727777777777778,48.57333333333334],[1.6958333333333333,48.62166666666667],[1.7394444444444446,48.7875],[1.9866666666666668,48.79861111111111]]
	    }
	},
        {
	    "type": "Feature",
	    "properties": {
		"name": "1500ft AMSL",
		"color": "red"
	    },
	    "geometry": {
		"type": "LineString",
		"coordinates": [[2.866667,49.232778],[3.060833,48.907778],[2.990556,48.875278],[2.978611,48.878611],[2.9025,48.863333],[2.899444,48.833056],[2.857778,48.813889],[2.848333,48.728611],[2.721944,48.681389],[2.618889,48.698611],[2.488889,48.618889],[2.489167,48.556111],[2.368333,48.480556],[2.174444,48.490833],[2.025833,48.524167],[1.999167,48.633333],[1.994167,48.653889],[1.988889,48.754167],[1.986944,48.795833],[1.986667,48.798611],[1.996667,48.798889],[1.998333,48.890833],[2.000556,48.990278],[2.197222,49.121111],[2.314444,49.141111],[2.419444,49.16],[2.866667,49.232778]]
	    }
	}
    ]
}
